999
"DXF R12 Output" (www.mydxf.blogspot.com)
 0 
SECTION
 2 
HEADER
 9 
$ACADVER
 1 
AC1009
 9 
$EXTMIN
 10 
 0 
 20 
 0 
 9 
$EXTMAX
 10 
 8.5 
 20 
 11 
 0 
ENDSEC
 0 
SECTION
 2 
ENTITIES
0
LINE
8
Layer 1
10
41.702000
20
213.339000
11
43.030755
21
213.444597
0
LINE
8
Layer 1
10
43.030755
20
213.444597
11
44.295702
21
213.751869
0
LINE
8
Layer 1
10
44.295702
20
213.751869
11
45.479178
21
214.246540
0
LINE
8
Layer 1
10
45.479178
20
214.246540
11
46.563519
21
214.914330
0
LINE
8
Layer 1
10
46.563519
20
214.914330
11
47.531059
21
215.740963
0
LINE
8
Layer 1
10
47.531059
20
215.740963
11
48.364136
21
216.712161
0
LINE
8
Layer 1
10
48.364136
20
216.712161
11
49.045084
21
217.813646
0
LINE
8
Layer 1
10
49.045084
20
217.813646
11
49.556240
21
219.031140
0
LINE
8
Layer 1
10
49.556240
20
219.031140
11
45.948207
21
218.338355
0
LINE
8
Layer 1
10
45.948207
20
218.338355
11
41.702000
21
218.087107
0
LINE
8
Layer 1
10
41.702000
20
218.087107
11
37.456074
21
218.338355
0
LINE
8
Layer 1
10
37.456074
20
218.338355
11
33.848330
21
219.031140
0
LINE
8
Layer 1
10
33.848330
20
219.031140
11
34.359272
21
217.813789
0
LINE
8
Layer 1
10
34.359272
20
217.813789
11
35.040044
21
216.712372
0
LINE
8
Layer 1
10
35.040044
20
216.712372
11
35.872984
21
215.741183
0
LINE
8
Layer 1
10
35.872984
20
215.741183
11
36.840429
21
214.914517
0
LINE
8
Layer 1
10
36.840429
20
214.914517
11
37.924716
21
214.246671
0
LINE
8
Layer 1
10
37.924716
20
214.246671
11
39.108182
21
213.751940
0
LINE
8
Layer 1
10
39.108182
20
213.751940
11
40.373164
21
213.444617
0
LINE
8
Layer 1
10
40.373164
20
213.444617
11
41.702000
21
213.339000
0
LINE
8
Layer 1
10
41.702000
20
213.339000
11
41.702000
21
213.339000
0
LINE
8
Layer 1
10
83.300100
20
209.172000
11
82.913315
21
209.818218
0
LINE
8
Layer 1
10
82.913315
20
209.818218
11
82.306396
21
210.265050
0
LINE
8
Layer 1
10
82.306396
20
210.265050
11
66.405196
21
217.605640
0
LINE
8
Layer 1
10
66.405196
20
217.605640
11
61.287662
21
219.143469
0
LINE
8
Layer 1
10
61.287662
20
219.143469
11
56.097296
21
220.318080
0
LINE
8
Layer 1
10
56.097296
20
220.318080
11
55.732665
21
220.353640
0
LINE
8
Layer 1
10
55.732665
20
220.353640
11
55.111186
21
220.247101
0
LINE
8
Layer 1
10
55.111186
20
220.247101
11
54.569347
21
219.947310
0
LINE
8
Layer 1
10
54.569347
20
219.947310
11
54.153024
21
219.484007
0
LINE
8
Layer 1
10
54.153024
20
219.484007
11
53.908095
21
218.886930
0
LINE
8
Layer 1
10
53.908095
20
218.886930
11
53.264259
21
216.860643
0
LINE
8
Layer 1
10
53.264259
20
216.860643
11
52.306363
21
214.998749
0
LINE
8
Layer 1
10
52.306363
20
214.998749
11
51.065441
21
213.333850
0
LINE
8
Layer 1
10
51.065441
20
213.333850
11
49.572529
21
211.898550
0
LINE
8
Layer 1
10
49.572529
20
211.898550
11
47.858663
21
210.725452
0
LINE
8
Layer 1
10
47.858663
20
210.725452
11
45.954878
21
209.847158
0
LINE
8
Layer 1
10
45.954878
20
209.847158
11
43.892210
21
209.296273
0
LINE
8
Layer 1
10
43.892210
20
209.296273
11
41.701695
21
209.105400
0
LINE
8
Layer 1
10
41.701695
20
209.105400
11
39.511268
21
209.296262
0
LINE
8
Layer 1
10
39.511268
20
209.296262
11
37.448649
21
209.847119
0
LINE
8
Layer 1
10
37.448649
20
209.847119
11
35.544886
21
210.725378
0
LINE
8
Layer 1
10
35.544886
20
210.725378
11
33.831026
21
211.898445
0
LINE
8
Layer 1
10
33.831026
20
211.898445
11
32.338119
21
213.333727
0
LINE
8
Layer 1
10
32.338119
20
213.333727
11
31.097213
21
214.998631
0
LINE
8
Layer 1
10
31.097213
20
214.998631
11
30.139355
21
216.860563
0
LINE
8
Layer 1
10
30.139355
20
216.860563
11
29.495595
21
218.886930
0
LINE
8
Layer 1
10
29.495595
20
218.886930
11
29.249594
21
219.484006
0
LINE
8
Layer 1
10
29.249594
20
219.484006
11
28.833149
21
219.947310
0
LINE
8
Layer 1
10
28.833149
20
219.947310
11
28.291714
21
220.247101
0
LINE
8
Layer 1
10
28.291714
20
220.247101
11
27.670745
21
220.353640
0
LINE
8
Layer 1
10
27.670745
20
220.353640
11
27.306114
21
220.318080
0
LINE
8
Layer 1
10
27.306114
20
220.318080
11
22.115343
21
219.143473
0
LINE
8
Layer 1
10
22.115343
20
219.143473
11
16.993114
21
217.605640
0
LINE
8
Layer 1
10
16.993114
20
217.605640
11
1.097560
21
210.266000
0
LINE
8
Layer 1
10
1.097560
20
210.266000
11
0.487925
21
209.819171
0
LINE
8
Layer 1
10
0.487925
20
209.819171
11
0.106679
21
209.172950
0
LINE
8
Layer 1
10
0.106679
20
209.172950
11
0.003774
21
208.426404
0
LINE
8
Layer 1
10
0.003774
20
208.426404
11
0.206303
21
207.700600
0
LINE
8
Layer 1
10
0.206303
20
207.700600
11
7.109453
21
194.077200
0
LINE
8
Layer 1
10
7.109453
20
194.077200
11
7.807776
21
193.317421
0
LINE
8
Layer 1
10
7.807776
20
193.317421
11
8.785283
21
193.042570
0
LINE
8
Layer 1
10
8.785283
20
193.042570
11
9.326303
21
193.122439
0
LINE
8
Layer 1
10
9.326303
20
193.122439
11
16.993433
21
195.394889
0
LINE
8
Layer 1
10
16.993433
20
195.394889
11
16.993400
21
149.683000
0
LINE
8
Layer 1
10
16.993400
20
149.683000
11
17.141999
21
148.950608
0
LINE
8
Layer 1
10
17.141999
20
148.950608
11
17.546978
21
148.351406
0
LINE
8
Layer 1
10
17.546978
20
148.351406
11
18.147113
21
147.946831
0
LINE
8
Layer 1
10
18.147113
20
147.946831
11
18.881180
21
147.798320
0
LINE
8
Layer 1
10
18.881180
20
147.798320
11
64.523000
21
147.798000
0
LINE
8
Layer 1
10
64.523000
20
147.798000
11
65.255039
21
147.946550
0
LINE
8
Layer 1
10
65.255039
20
147.946550
11
65.853464
21
148.351191
0
LINE
8
Layer 1
10
65.853464
20
148.351191
11
66.257262
21
148.950406
0
LINE
8
Layer 1
10
66.257262
20
148.950406
11
66.405420
21
149.682680
0
LINE
8
Layer 1
10
66.405420
20
149.682680
11
66.405400
21
195.394000
0
LINE
8
Layer 1
10
66.405400
20
195.394000
11
74.077890
21
193.121550
0
LINE
8
Layer 1
10
74.077890
20
193.121550
11
74.618345
21
193.041681
0
LINE
8
Layer 1
10
74.618345
20
193.041681
11
75.593916
21
193.316531
0
LINE
8
Layer 1
10
75.593916
20
193.316531
11
76.294745
21
194.076311
0
LINE
8
Layer 1
10
76.294745
20
194.076311
11
83.200435
21
207.699711
0
LINE
8
Layer 1
10
83.200435
20
207.699711
11
83.399804
21
208.425464
0
LINE
8
Layer 1
10
83.399804
20
208.425464
11
83.300100
21
209.172000
0
LINE
8
Layer 1
10
83.300100
20
209.172000
11
83.300100
21
209.172000
 0 
ENDSEC
 0 
EOF